{
  "development": {
    "dialect": "sqlite",
    "storage": "./notely-web.db"
  },
  "test": {
    "dialect": "sqlite",
    "storage": "./notely-web.db"
  },
  "production": {
    "dialect": "sqlite",
    "storage": "./notely-webdb.db"
  }
}
